4eb9920246a83768e549bef68c96f7a954c3aefe03475f0441f893a5aaff28947f2946fbcbe3e251399deb1d185cee4be48bbf0bc27affce91d10481d792aad7  ../grade.sh
07dcd1ca251159e0f4e2a8af6fd67538bfeb48e8a62ed0cf3311d8d980f7b7f12216bc13af0eebcfaaf8dc1a67044b06939430e3738970c8d73d4599defe4306  CMakeLists.txt
fab91e721f66b926fff34a0009bb0c5be85d8c1ab5ecd4e526f65b4ae1810642f0dbc1e4c109f342986d93803fe845b44a2b5363e953f01b92cd65e9709735c0  files_to_protect_with_assigner_gpg2.txt
1387d55bceb5d39346c33af481b5ffd482a42e945d2cb2bbf1348f1c13e7f7723e04089910c367c9d6aaf877f6772ea99cd047966283b7b0746191aa4f865c6d  fuzzydiffer.py
72a33302e8bfb64d1c13c876f052d58bf971f8c5d191d5a7b71a8d5ba8e0cb61167dab26f85737c0107d2a9b8977cdbe333fa654c5a0f79d13e4994443c814c8  grade_backend.sh
8843e99c7911182ac6790a376b824e25a1db581d3ae776fcf9f39876ae1e4b7f3f9ff282a62974d12f7a6cebb73af2fd187a34219a1a2eae40b183dc0e91b530  hash_gen.sh
37e2cd9dd141834f7072edebb2c9ff9b55d1b8a611dea4d6920034bd6f35b75f14476de8f463c440b19ba67746d084edf5fb4e0422df70be86539aab509d6cb0  run-clang-format.py
5f328bf7f5539d31a695b7771bec05845ea94c85fef571ea58a14a4e327859fe7ff8b6b4cbc23a2da197502cd32f6792b74caca05bc94c28291e74a00782de5e  setup.sh
688ffa890a492edfca77917ff491bdf219492f102400c1cc9df2ab7fbdad28be747c496bd3853c07696dba8cecf5f1460c8efb44a7ef27e531832d2f0412341d  test_utils.hpp
970f1637130e80534ee9d2d3c648518770a7bb74cc3a7f1e90fdaab66a3af758d1b5ad6c5cf1be6ee3c3d0b8f1c615dab957ece4c3c6fe79ea53001f7adb12df  test_utils.py
7f4f10eacede19f6c70c1ac7d4771b1bc349db22fb7cb023f90953369589e9249f16737b4218f4a0e5be69ca8b2609ab73ac0656d7c4d09bf9a0b2c37668a40e  ../.gitlab-ci.yml
